Division,WeightClassKg,Place,Name,Team,BodyweightKg,Best3SquatKg,Best3BenchKg,Best3DeadliftKg,TotalKg,Equipment,Event,Sex
Boys,51.71,1,Nathaniel Jimenez,Dayton,51.71,124.74,77.11,129.27,331.12,Single-ply,SBD,M
Boys,51.71,2,Marquis Alexander,Van Vleck,51.66,81.65,56.7,106.59,244.94,Single-ply,SBD,M
Boys,51.71,DQ,Austyn Pruett,Shepherd,51.26,,,,,Single-ply,SBD,M
Boys,55.79,1,Ruben Jaramillo,Winnie East Chambers,55.7,122.47,72.57,127.01,322.05,Single-ply,SBD,M
Boys,59.87,1,Abraham Espino,Van Vleck,59.42,138.35,88.45,142.88,369.68,Single-ply,SBD,M
Boys,59.87,2,Chase McCain,Sour Lake Hardin-Jefferson,59.06,124.74,92.99,142.88,360.61,Single-ply,SBD,M
Boys,59.87,3,Logan Postert,Sour Lake Hardin-Jefferson,59.87,136.08,74.84,136.08,347,Single-ply,SBD,M
Boys,67.13,1,Jayden Landry,Anahuac,65.32,165.56,90.72,158.76,415.04,Single-ply,SBD,M
Boys,67.13,DQ,Zane Wheat,Winnie East Chambers,63.96,,,,,Single-ply,SBD,M
Boys,67.13,DQ,Mason Johnson,Liberty,63.5,,,,,Single-ply,SBD,M
Boys,67.13,DQ,Zach Jenkins,Shepherd,65.77,,,,,Single-ply,SBD,M
Boys,67.13,DQ,Gage Davis,Van Vleck,66.22,,,,,Single-ply,SBD,M
Boys,74.84,1,Ian Palermo,Bridge City,74.3,179.17,108.86,226.8,514.83,Single-ply,SBD,M
Boys,74.84,2,Tristan Bigler,Bridge City,73.84,176.9,95.25,222.26,494.42,Single-ply,SBD,M
Boys,74.84,3,Anthony Ramirez,Anahuac,70.58,140.61,86.18,181.44,408.23,Single-ply,SBD,M
Boys,74.84,4,Ke'Shawn Whittington,Anahuac,72.21,131.54,88.45,188.24,408.23,Single-ply,SBD,M
Boys,74.84,DQ,Jacob Galle,Sour Lake Hardin-Jefferson,73.48,,,,,Single-ply,SBD,M
Boys,74.84,DQ,James Harrison,Shepherd,73.48,,,,,Single-ply,SBD,M
Boys,82.1,1,Ethan McKay,Orange Little Cypress-Mauriceville,79.11,210.92,120.2,206.38,537.51,Single-ply,SBD,M
Boys,82.1,2,Keagan Landry,Bridge City,78.74,185.97,138.35,197.31,521.63,Single-ply,SBD,M
Boys,82.1,3,Victor Davila,Orange Little Cypress-Mauriceville,78.02,204.12,124.74,183.7,512.56,Single-ply,SBD,M
Boys,82.1,4,Chris Moulton,Anahuac,76.11,167.83,88.45,183.7,439.98,Single-ply,SBD,M
Boys,82.1,DQ,Perry Evans,Liberty,76.2,,,,,Single-ply,SBD,M
Boys,89.81,1,Christian Montemayor,Van Vleck,86,181.44,117.93,226.8,526.17,Single-ply,SBD,M
Boys,89.81,2,Trent Brown,Orange Little Cypress-Mauriceville,88.45,181.44,127.01,206.38,514.83,Single-ply,SBD,M
Boys,89.81,3,Tristan Wells,Van Vleck,86.36,149.69,102.06,183.7,435.45,Single-ply,SBD,M
Boys,89.81,DQ,Cole Edwards #2,Anahuac,82.55,,,,,Single-ply,SBD,M
Boys,99.79,1,Dylan Broussard,Anahuac,98.43,197.31,133.81,204.12,535.24,Single-ply,SBD,M
Boys,99.79,DQ,Alex Brown,Liberty,91.63,,,,,Single-ply,SBD,M
Boys,99.79,DQ,Isaiah Garcia,Shepherd,97.52,,,,,Single-ply,SBD,M
Boys,109.77,1,Michael Hoy,Dayton,104.87,215.46,149.69,238.14,603.28,Single-ply,SBD,M
Boys,109.77,2,Brandon Hoskins,Anahuac,105.51,190.51,151.95,199.58,542.04,Single-ply,SBD,M
Boys,109.77,3,Santos Garcia,Bridge City,102.97,199.58,111.13,188.24,498.95,Single-ply,SBD,M
Boys,109.77,4,Malik Griffin,Orange Little Cypress-Mauriceville,100.15,183.7,124.74,181.44,489.88,Single-ply,SBD,M
Boys,109.77,5,Lane Elizondo,Van Vleck,101.42,149.69,97.52,167.83,415.04,Single-ply,SBD,M
Boys,109.77,6,James Henry,Anahuac,101.15,99.79,81.65,145.15,326.59,Single-ply,SBD,M
Boys,109.77,DQ,Tyris Williams,Liberty,105.69,,,,,Single-ply,SBD,M
Boys,124.74,1,Jordan Parks,Orange Little Cypress-Mauriceville,118.12,204.12,142.88,188.24,535.24,Single-ply,SBD,M
Boys,124.74,2,Kaegan Childree,Winnie East Chambers,113.94,210.92,117.93,188.24,517.1,Single-ply,SBD,M
Boys,124.74,3,William Orozco,Anahuac,124.56,183.7,124.74,183.7,492.15,Single-ply,SBD,M
Boys,124.74,4,Lucas Tanton,Dayton,118.02,179.17,102.06,156.49,437.72,Single-ply,SBD,M
Boys,124.74,5,Julien Aguilera,Anahuac,122.65,106.59,86.18,122.47,315.25,Single-ply,SBD,M
Boys,124.74,DQ,Skyler Shackelford,Sour Lake Hardin-Jefferson,115.67,,,,,Single-ply,SBD,M
Boys,124.74,DQ,Clayton Martines,Shepherd,122.47,,,,,Single-ply,SBD,M
Boys,124.74+,1,Bryan Hayes,La Porte,155.85,249.48,161.03,233.6,644.1,Single-ply,SBD,M
Boys,124.74+,2,Tron Rideaux,Sour Lake Hardin-Jefferson,147.87,260.82,158.76,260.82,680.39,Single-ply,SBD,M
Boys,124.74+,3,Michael Jauer,Sour Lake Hardin-Jefferson,159.57,238.14,158.76,199.58,596.47,Single-ply,SBD,M
Boys,124.74+,4,Alex Smith #3,Anahuac,146.06,213.19,145.15,199.58,557.92,Single-ply,SBD,M
Boys,124.74+,DQ,David McCoy,Sour Lake Hardin-Jefferson,131.54,,,,,Single-ply,SBD,M
Boys,124.74+,DQ,Merel Bunfill,Liberty,148.78,,,,,Single-ply,SBD,M
