﻿Ergebnisse "Deutsche Meisterschaft" im Kreuzheben, 2. Mai 2009 / Cottbus
Klasse                                                                     Platzierung   Name                                      Körpergew.   1. Versuch   2. Versuch   3. Versuch  Gesamtpkt.
Frauen / Junioren                                                          1. Platz             Maria Fuchs         Kitzscher      56,0 kg      110,0 kg     110,0 kg     112,5 kg                 214,31 DR
                                                                           2. Platz             Carolin Schlegel    Spremberg      59,5 kg      100,0 kg     107,5 kg     112,5 kg                 192,96
Frauen / Aktive                                                            1. Platz             Aileen Udewenz      Cottbus        65,6 kg      110,0 kg     115,0 kg     120,0 kg                 192,28 DR
Frauen / Masters I                                                         1. Platz             Ines Liedtke        Kitzscher      56,4 kg      97,5 kg      102,5 kg     107,5 kg                 203,82 DR
Junioren                                                                   1. Platz             Tom Körner          Groß Räschen   74,6 kg      215,0 kg     225,0 kg     235,0 kg                 150,40 DR
bis 23 Jahre                                                               2. Platz             Lars Augstein       Rehna          72,3 kg      202,5 kg     210,0 kg     217,5 kg                 145,20
Leichtgewicht -75kg
Mittelgewicht -95kg                                                        1. Platz             Christoph Stürmer   Güstrow        82,3 kg      280,0 kg     290,0 kg     300,0 kg                 207,70 DR
Schwergewicht -115kg                                                       1. Platz             Nando Stoll         Rehna          95,5 kg      280,0 kg     295,0 kg     305,0 kg                 209,50 DR
                                                                           2. Platz             Martin Freese       Jena           106,3 kg     240,0 kg     255,0 kg     275,0 kg                 148,70
                                                                           3. Platz             Ricardo Greisert    Wittstock      102,9 kg     180,0 kg     200,0 kg     210,0 kg                 107,10
Superschwergewicht +115kg                                                  1. Platz             Marcel Hartig       Jena           120,9 kg     305,0 kg     325,0 kg     340,0 kg                 219,10 DR
Aktive bis 39 Jahre                                                        1. Platz             Roland Scholze      Zittau         75,0 kg      195,0 kg     202,5 kg     207,5 kg                 132,70 DR
Leichtgewicht -75kg                                                        2. Platz             Rene Trockenbrodt   Wittstock      63,6 kg      160,0 kg     175,0 kg     182,5 kg                 119,20
Mittelgewicht -95kg                                                        1. Platz             Ronny Pawlowsky     Malchow        80,5 kg      220,0 kg     240,0 kg     247,5 kg                 167,00
                                                                           2. Platz             Norman Halko        Cottbus        80,5 kg      230,0 kg     240,0 kg     245,0 kg                 159,50
                                                                           3. Platz             Jürgen Pfohl        Köln           89,0 kg      190,0 kg     202,5 kg     210,0 kg                 121,00
Schwergewicht -115kg                                                       1. Platz             Michael Schrott     Nürnberg       112,8 kg     300,0 kg     310,0 kg     320,0 kg                 207,20 DR
                                                                           2. Platz             Oliver Zamzow       Groß Räschen   112,2 kg     270,0 kg     285,0 kg     292,5 kg                 180,30
                                                                           3. Platz             Michael Schiemenz   Brandenburg    102,9 kg     230,0 kg     245,0 kg     260,0 kg                 157,10
                                                                           4. Platz             Hans Müller         Saarbrücken    108,7 kg     245,0 kg     260,0 kg     270,0 kg                 151,30
                                                                           5. Platz             Felix Ebinger       Reiskirchen    95,5 kg      225,0 kg     245,0 kg     250,0 kg                 149,50
Superschwergewicht +115kg                                                  1. Platz             Sergej Moser        Stuttgart      127,4 kg     325,0 kg     350,0 kg     362,5 kg                 235,10 DR
                                                                           2. Platz             Christian Poppe     Saarbrücken    126,0 kg     320,0 kg     345,0 kg     345,0 kg                 194,00
                                                                           3. Platz             Timo Rüdiger        Helmstedt      120,7 kg     270,0 kg     280,0 kg     280,0 kg                 149,30

Masters I ab 40 Jahre
Mittelgewicht -95kg                                    1. Platz            Arndt Dankwerth       Hildesheim   90,7 kg    207,5 kg   227,5 kg   230,0 kg   136,80 DR
                                                       2. Platz            Jens Bußmann          Cottbus      85,0 kg    200,0 kg   220,0 kg   230,0 kg   135,00
Schwergewicht -115kg                                   1. Platz            Birger Liedtke        Kitzscher    110,6 kg   290,0 kg   300,0 kg   305,0 kg   194,40 DR
                                                       2. Platz            Ralf Kanthak          Wittstock    113,8 kg   270,0 kg   290,0 kg   302,5 kg   176,20
                                                       3. Platz            Rene Trage            Cottbus      101,7 kg   240,0 kg   260,0 kg   270,0 kg   158,30
Superschwergewicht +115kg                              1. Platz            Rainer Schulze        Kyritz       121,6 kg   270,0 kg   280,0 kg   290,0 kg   158,40 DR
Masters II ab 50 Jahre
Schwergewicht -115kg                                   1. Platz            Reinhardt Melzig      Wittenberg   100,4 kg   300,0 kg   320,0 kg   330,0 kg   219,60 DR
                                                       2. Platz            Stefan Kapplinghaus   Düsseldorf   99,3 kg    190,0 kg   200,0 kg   205,0 kg   100,70
Gesamtsieger / nach Relativpunkten, Reshel - Tabelle
Frauen:                                                Maria Fuchs         Kitzscher
Junioren:                                              Christoph Stürmer   Güstrow
Aktive:                                                Sergej Moser        Stuttgart
Masters I:                                             Birger Liedtke      Kitzscher
Masters II:                                            Reinhardt Melzig    Wittenberg
