Division,WeightClassKg,Place,Name,Team,BodyweightKg,Best3SquatKg,Best3BenchKg,Best3DeadliftKg,TotalKg,Equipment,Event,Sex,BirthDate
Boys,51.71,1,Amari Crowder,Mansfield Timberview,50.62,136.08,65.77,158.76,360.61,Single-ply,SBD,M,
Boys,51.71,2,Nicolas Castro,Royse City,51.53,92.99,65.77,122.47,281.23,Single-ply,SBD,M,
Boys,51.71,3,Dominic Serefano,Mansfield Lake Ridge,51.71,88.45,56.7,108.86,254.01,Single-ply,SBD,M,
Boys,51.71,4,Joe Atilano,Ferris,48.99,83.91,43.09,90.72,217.72,Single-ply,SBD,M,
Boys,55.79,1,Zachary Doyle,Royse City,55.79,188.24,90.72,172.37,451.32,Single-ply,SBD,M,
Boys,59.87,1,Jaxon Whishant,Royse City,59.42,163.29,104.33,219.99,487.61,Single-ply,SBD,M,
Boys,59.87,2,Andrew Alcala,Mansfield Timberview,58.79,161.03,97.52,136.08,394.63,Single-ply,SBD,M,
Boys,59.87,3,Tai Satchell,Mansfield Timberview,59.1,145.15,83.91,151.95,381.02,Single-ply,SBD,M,
Boys,59.87,4,Omar Hernandez #4,Ferris,59.87,115.67,58.97,136.08,310.71,Single-ply,SBD,M,
Boys,59.87,5,Damon Polling,Mansfield Summit,59.51,106.59,52.16,129.27,288.03,Single-ply,SBD,M,
Boys,59.87,6,Tavare Smith,Mansfield Summit,59.24,120.2,56.7,106.59,283.5,Single-ply,SBD,M,
Boys,59.87,DQ,Kollin Moss,Royse City,59.87,176.9,97.52,,,Single-ply,SBD,M,
Boys,67.13,1,Jaylen Mour,Cedar Hill,67.13,138.35,65.77,158.76,362.87,Single-ply,SBD,M,
Boys,67.13,2,Tyler Moores,Mansfield Legacy,65.05,133.81,61.23,151.95,347,Single-ply,SBD,M,
Boys,67.13,3,Kayode Gbadebo,Mansfield Summit,62.96,127.01,61.23,133.81,322.05,Single-ply,SBD,M,
Boys,67.13,4,Torin Sheehy,Mansfield Lake Ridge,65.86,117.93,72.57,115.67,306.17,Single-ply,SBD,M,
Boys,67.13,DQ,Arius Burton,Royse City,67.13,158.76,,,,Single-ply,SBD,M,
Boys,74.84,1,Amen Rana,Mansfield Summit,68.95,208.65,104.33,222.26,535.24,Single-ply,SBD,M,
Boys,74.84,3,Kylon Ashton,Cedar Hill,70.31,181.44,88.45,183.7,453.59,Single-ply,SBD,M,
Boys,74.84,4,Isaiah Hall,Mansfield Summit,71.03,156.49,102.06,161.03,419.57,Single-ply,SBD,M,
Boys,74.84,5,Drew Bleving,Mansfield,72.67,149.69,79.38,174.63,403.7,Single-ply,SBD,M,
Boys,74.84,6,Ricardo Rendon III,Mansfield Timberview,74.39,142.88,99.79,154.22,396.89,Single-ply,SBD,M,
Boys,74.84,7,Jalon Peoples,Cedar Hill,74.84,142.88,86.18,167.83,396.89,Single-ply,SBD,M,
Boys,74.84,8,Amarian Williams,Cedar Hill,74.84,136.08,90.72,163.29,390.09,Single-ply,SBD,M,
Boys,74.84,9,Kody Connell,Ferris,68.95,156.49,74.84,156.49,387.82,Single-ply,SBD,M,
Boys,74.84,10,Andrew Rosenthal,Ferris,71.67,136.08,83.91,136.08,356.07,Single-ply,SBD,M,
Boys,74.84,11,Keandre Jackson,Cedar Hill,73.94,83.91,83.91,174.63,342.46,Single-ply,SBD,M,
Boys,74.84,12,Logan Fortenberry,Mansfield Lake Ridge,70.58,122.47,81.65,129.27,333.39,Single-ply,SBD,M,
Boys,82.1,1,Caleb Robb,Royse City,80.01,190.51,95.25,201.85,487.61,Single-ply,SBD,M,
Boys,82.1,2,James Windson,Mansfield,80.92,172.37,117.93,195.04,485.34,Single-ply,SBD,M,
Boys,82.1,2,Austin Fortenberry,Mansfield Lake Ridge,74.93,158.76,97.52,204.12,460.4,Single-ply,SBD,M,
Boys,82.1,3,Noah Loughlin,Mansfield Lake Ridge,78.83,136.08,90.72,156.49,383.29,Single-ply,SBD,M,
Boys,82.1,4,Jose Ovalle,Ferris,78.47,192.78,92.99,,285.76,Single-ply,SB,M,
Boys,82.1,DQ,Robert Stillman,Ferris,81.19,,,,,Single-ply,SBD,M,
Boys,82.1,DQ,Ethan Nguyen,Mansfield Lake Ridge,82.01,215.46,108.86,,,Single-ply,SBD,M,
Boys,89.81,1,Griffin Merillat,Royse City,88.36,258.55,163.29,219.99,641.83,Single-ply,SBD,M,
Boys,89.81,2,Zach Essih,Mansfield Timberview,85.87,226.8,113.4,226.8,566.99,Single-ply,SBD,M,
Boys,89.81,3,Josh Hendrick,Royse City,86.82,204.12,111.13,233.6,548.85,Single-ply,SBD,M,
Boys,89.81,4,Cameron Alexander,Mansfield Summit,87.27,188.24,97.52,206.38,492.15,Single-ply,SBD,M,
Boys,89.81,5,Tai Nguyen,Mansfield Summit,84.46,188.24,99.79,188.24,476.27,Single-ply,SBD,M,
Boys,89.81,6,Jason Tran #2,Mansfield,83.1,179.17,88.45,201.85,469.47,Single-ply,SBD,M,
Boys,89.81,7,Kendall Stevens,Cedar Hill,86.18,170.1,104.33,181.44,455.86,Single-ply,SBD,M,
Boys,89.81,8,Oscar Garrido,Mansfield Legacy,83.82,170.1,92.99,165.56,428.64,Single-ply,SBD,M,
Boys,89.81,9,Aj Heredia,Mansfield Timberview,82.92,142.88,102.06,161.03,405.97,Single-ply,SBD,M,
Boys,99.79,1,Adam Sawalah,Mansfield Lake Ridge,96.25,256.28,133.81,272.16,662.24,Single-ply,SBD,M,
Boys,99.79,2,John Robertson,Cedar Hill,92.53,204.12,113.4,201.85,519.36,Single-ply,SBD,M,
Boys,99.79,3,Kaleb Davis,Mansfield Timberview,99.52,172.37,111.13,201.85,485.34,Single-ply,SBD,M,
Boys,99.79,4,Maximo Colon,Mansfield Legacy,99.79,167.83,111.13,190.51,469.47,Single-ply,SBD,M,
Boys,99.79,5,Logon Polson,Mansfield Legacy,90.72,156.49,92.99,183.7,433.18,Single-ply,SBD,M,
Boys,109.77,1,Demondre Green,Mansfield Timberview,109.13,249.48,149.69,238.14,637.3,Single-ply,SBD,M,
Boys,109.77,2,Javeon Artist,Mansfield Timberview,106.59,215.46,149.69,215.46,580.6,Single-ply,SBD,M,
Boys,109.77,3,Joseph Adedire,Mansfield Summit,102.69,192.78,113.4,204.12,510.29,Single-ply,SBD,M,
Boys,109.77,4,Aaron Martinez,Mansfield Legacy,104.51,190.51,111.13,204.12,505.76,Single-ply,SBD,M,
Boys,109.77,5,Sterling Cox,Mansfield Legacy,101.88,165.56,90.72,170.1,426.38,Single-ply,SBD,M,
Boys,109.77,6,Tyler Young #2,Cedar Hill,109.68,156.49,90.72,179.17,426.38,Single-ply,SBD,M,
Boys,109.77,7,Isaac Mendoza,Ferris,101.15,161.03,92.99,154.22,408.23,Single-ply,SBD,M,
Boys,109.77,DQ,Matthew Quiroz,Ferris,109.77,,,,,Single-ply,SBD,M,
Boys,109.77,DQ,Braden Tittle,Royse City,108.77,,,,,Single-ply,SBD,M,
Boys,124.74,1,Armani Cathy,Mansfield Timberview,122.56,249.48,147.42,226.8,623.69,Single-ply,SBD,M,
Boys,124.74,2,Avary Davis #1,Mansfield Summit,115.03,240.4,124.74,215.46,580.6,Single-ply,SBD,M,
Boys,124.74,3,Biola Oyelade,Mansfield Summit,123.01,217.72,136.08,226.8,580.6,Single-ply,SBD,M,
Boys,124.74,4,Caleb Rogers,Mansfield Lake Ridge,123.2,231.33,115.67,206.38,553.38,Single-ply,SBD,M,
Boys,124.74,5,Carlos Peoples,Cedar Hill,123.83,213.19,131.54,181.44,526.17,Single-ply,SBD,M,
Boys,124.74,6,Josiah Jefferson,Cedar Hill,111.13,197.31,108.86,163.29,469.47,Single-ply,SBD,M,
Boys,124.74,7,Matthew Worth,Cedar Hill,117.93,165.56,86.18,163.29,415.04,Single-ply,SBD,M,
Boys,124.74,DQ,Kacey Cauley,Mansfield Timberview,117.75,199.58,156.49,,,Single-ply,SBD,M,
Boys,124.74,DQ,Kerian Phounsvath,Royse City,111.13,,,,,Single-ply,SBD,M,
Boys,124.74+,1,Miguel Delgado,Ferris,156.94,294.84,151.95,188.24,635.03,Single-ply,SBD,M,
Boys,124.74+,2,Nick Culas,Royse City,132.54,260.82,149.69,217.72,628.23,Single-ply,SBD,M,
Boys,124.74+,3,Garrett Little,Mansfield Legacy,127.73,190.51,124.74,222.26,537.51,Single-ply,SBD,M,
Boys,124.74+,4,Trestan Walker,Mansfield Summit,235.87,156.49,120.2,204.12,480.81,Single-ply,SBD,M,
Boys,124.74+,5,Jordan Allen,Mansfield Lake Ridge,129.46,183.7,108.86,183.7,476.27,Single-ply,SBD,M,
